{
    "Document": [
        {
            "category": "Legal and Governmental",
            "properties": []         
        },
        {
            "category": "Taxes",
            "properties": []         
        },
        {
            "category": "Policies",
            "properties": []         
        }
    ],
    "Asset" : [
        {
            "category": "Cash",
            "properties": []         
        },
        {
            "category": "Equipment",
            "properties": []         
        },
        {
            "category": "Property",
            "properties": []         
        },
        {
            "category": "Vehicles",
            "properties": [
                {
                    "name": "Make",
                    "type": "STRING",
                    "required": false
                },
                {
                    "name": "Model",
                    "type": "STRING",
                    "required": false
                },
                {
                    "name": "License Plate",
                    "type": "STRING",
                    "required": false
                },
                {
                    "name": "Year Purchased",
                    "type": "STRING",
                    "required": false
                }
            ]         
        }
    ],
    "Liability" : [
        {
            "category": "Large Bills",
            "properties": []         
        },
        {
            "category": "Lines of Credit",
            "properties": []         
        },
        {
            "category": "Loans",
            "properties": []         
        },
        {
            "category": "Unpaid Taxes",
            "properties": []         
        }
    ],
    "Account": [
        {
            "category": "Accounting",
            "properties": []         
        },
        {
            "category": "Banking",
            "properties": []         
        },
        {
            "category": "Software",
            "properties": []         
        }
    ],
    "People": [
        {
            "category": "Accountant",
            "properties": []         
        },
        {
            "category": "Colleague",
            "properties": []         
        },
        {
            "category": "Consultant",
            "properties": []         
        },
        {
            "category": "Family",
            "properties": []         
        },
        {
            "category": "Lawyer",
            "properties": []         
        }
    ],
    "Insights": [
        {
            "category": "Family Business Matters",
            "properties": []         
        },
        {
            "category": "Financial Considerations",
            "properties": []         
        },
        {
            "category": "Last Wishes",
            "properties": []         
        }
    ]

}